Place,Name,Sex,Event,Division,WeightClassKg,Equipment,BirthYear,Team,State,BodyweightKg,Squat1Kg,Squat2Kg,Squat3Kg,Best3SquatKg,Bench1Kg,Bench2Kg,Bench3Kg,Best3BenchKg,Deadlift1Kg,Deadlift2Kg,Deadlift3Kg,Best3DeadliftKg,TotalKg,BirthDate
1,Juliana Bhering,F,SBD,Open,47,Raw,1998,Team Parana,,45.6,92.5,100,-105,100,50,52.5,-55,52.5,130,135,-140,135,287.5,
1,Juliana Bhering,F,SBD,Novice,47,Raw,1998,Team Parana,,45.6,92.5,100,-105,100,50,52.5,-55,52.5,130,135,-140,135,287.5,
1,Laura Nauck,F,SBD,Juniors,47,Raw,2001,Team Parana,,44.4,70,77.5,-82.5,77.5,40,45,-47.5,45,90,100,-110,100,222.5,
2,Laura Nauck,F,SBD,Novice,47,Raw,2001,Team Parana,,44.4,70,77.5,-82.5,77.5,40,45,-47.5,45,90,100,-110,100,222.5,
2,Nicoly Pereira,F,SBD,Juniors,47,Raw,2001,Associação Catarinense de Levantamentos Básicos,,46.2,50,60,-70,60,27.5,32.5,-35,32.5,87.5,100,105,105,197.5,
2,Nicoly Pereira,F,SBD,Open,47,Raw,2001,Associação Catarinense de Levantamentos Básicos,,46.2,50,60,-70,60,27.5,32.5,-35,32.5,87.5,100,105,105,197.5,
1,Giulia Cunha Costa Carvalho,F,SBD,Open,52,Raw,1999,Team Oishi,,48.5,125,133,-134,133,72.5,75,-77.5,75,140,150,-155.5,150,358,
2,Mayara Rocha Soares,F,SBD,Open,52,Raw,1992,Federação Paraibana de Levantamentos Básicos,,50.8,120,127.5,133.5,133.5,65,-70,-70,65,130,135,140,140,338.5,
3,Gabriela Finotello,F,SBD,Open,52,Raw,1997,Team Oishi,,51.3,112.5,120,-122.5,120,47.5,-50,50,50,135,145,-152.5,145,315,
1,Gabriela Finotello,F,SBD,Novice,52,Raw,1997,Team Oishi,,51.3,112.5,120,-122.5,120,47.5,-50,50,50,135,145,-152.5,145,315,
1,Renata Inamassu,F,SBD,Masters 1,52,Raw,1978,Team Parana,,51.6,97.5,105,115,115,70,-75,-75,70,110,117.5,-127.5,117.5,302.5,
2,Renata Inamassu,F,SBD,Novice,52,Raw,1978,Team Parana,,51.6,97.5,105,115,115,70,-75,-75,70,110,117.5,-127.5,117.5,302.5,
1,Emilli Vitoria Conceicao Oliveira,F,SBD,Sub-Juniors,52,Raw,2005,Sesla - Indaiatuba,,50.1,87.5,95,-100,95,40,45,47.5,47.5,90,100,105,105,247.5,
2,Daniela Nunes Ferreira,F,SBD,Masters 1,52,Raw,1978,Marcelo Aló,,49.6,80,85,-90,85,47.5,-50,-50,47.5,100,107.5,112.5,112.5,245,
1,Irani Rodrigues Barbosa,F,SBD,Open,57,Raw,1986,Box Do Xerife,,56.5,117.5,122.5,-125,122.5,72.5,-80,80,80,142.5,155,-160,155,357.5,
2,Alice Mourao,F,SBD,Open,57,Raw,1997,Federação de Powerlifting Do Estado Do Rio de Janeiro,,55.8,-100,100,-107.5,100,60,65,-67.5,65,127.5,132.5,145,145,310,
3,Barbara Meyer,F,SBD,Open,57,Raw,1994,Cicera Tavares Powerlifting,,56,-92.5,100,-105,100,-70,70,75,75,115,132.5,-135,132.5,307.5,
4,Paula Borges,F,SBD,Open,57,Raw,1985,Team Saramago,,55.9,110,115,-117.5,115,60,-62.5,-62.5,60,130,-135,-135,130,305,
1,Kauane Zenie,F,SBD,Sub-Juniors,57,Raw,2006,Team Parana,,54.4,95,105,-110,105,55,57.5,-60,57.5,130,140,-147.5,140,302.5,
5,Kauane Zenie,F,SBD,Open,57,Raw,2006,Team Parana,,54.4,95,105,-110,105,55,57.5,-60,57.5,130,140,-147.5,140,302.5,
6,Silmara Aparecida Valvazoridos Reis,F,SBD,Open,57,Raw,1976,Team Parana,,56.1,97.5,-105,105,105,52.5,57.5,-60,57.5,130,137.5,-150,137.5,300,
1,Silmara Aparecida Valvazoridos Reis,F,SBD,Masters 1,57,Raw,1976,Team Parana,,56.1,97.5,-105,105,105,52.5,57.5,-60,57.5,130,137.5,-150,137.5,300,
1,Jossana Ruff,F,SBD,Novice,57,Raw,1995,Box Do Xerife,,56.2,100,107.5,110,110,50,52.5,-55,52.5,127.5,135,-140,135,297.5,
2,Keity Peixoto,F,SBD,Novice,57,Raw,1987,Team Parana,,55.9,-92.5,92.5,100,100,-45,45,-50,45,125,132.5,-142.5,132.5,277.5,
1,Juliana Traczyk,F,SBD,Juniors,57,Raw,2001,Team Parana,,53,70,80,90,90,32.5,37.5,40,40,90,100,110,110,240,
1,Érica Batista Bueno,F,SBD,Open,63,Raw,1980,Medved,,61,147.5,152.5,155,155,113,115.5,-118,115.5,160,167.5,-172.5,167.5,438,
2,Renata Touma,F,SBD,Open,63,Raw,1998,Team Oishi,,62.4,142.5,150,-155,150,80,-85,-85,80,157.5,167.5,-170,167.5,397.5,
3,Daniele Sabino Rocha,F,SBD,Open,63,Raw,1992,Team Oishi,,62.3,120,127.5,130,130,70,72.5,-75,72.5,145,152.5,160,160,362.5,
4,Gisele Barbosa Lourenco,F,SBD,Open,63,Raw,1982,Team Oishi,,59.9,105,-112.5,112.5,112.5,60,-62.5,-62.5,60,152.5,160,165,165,337.5,
1,Gisele Barbosa Lourenco,F,SBD,Masters 1,63,Raw,1982,Team Oishi,,59.9,105,-112.5,112.5,112.5,60,-62.5,-62.5,60,152.5,160,165,165,337.5,
1,Gisele Barbosa Lourenco,F,SBD,Novice,63,Raw,1982,Team Oishi,,59.9,105,-112.5,112.5,112.5,60,-62.5,-62.5,60,152.5,160,165,165,337.5,
5,Luisa Simei Dos Santos,F,SBD,Open,63,Raw,1998,Team Oishi,,60.7,120,-127.5,-127.5,120,70,72.5,-75,72.5,125,132.5,-137.5,132.5,325,
2,Marcia Marins,F,SBD,Masters 1,63,Raw,1981,Team Parana,,61.8,110,120,-127.5,120,55,62.5,65,65,135,140,-145,140,325,
2,Dyandra Portella,F,SBD,Novice,63,Raw,1995,Team Parana,,62.8,100,110,117.5,117.5,47.5,52.5,-55,52.5,137.5,145,152.5,152.5,322.5,
6,Rafaela Mendizabal,F,SBD,Open,63,Raw,1998,Team Parana,,62,115,-122.5,-122.5,115,57.5,-60,-60,57.5,135,142.5,145,145,317.5,
3,Rafaela Mendizabal,F,SBD,Novice,63,Raw,1998,Team Parana,,62,115,-122.5,-122.5,115,57.5,-60,-60,57.5,135,142.5,145,145,317.5,
7,Josilene de Sales Lima,F,SBD,Open,63,Raw,1980,Hatadani Powerlifting,,61.9,105,112.5,117.5,117.5,60,62.5,-65,62.5,130,-140,-140,130,310,
3,Josilene de Sales Lima,F,SBD,Masters 1,63,Raw,1980,Hatadani Powerlifting,,61.9,105,112.5,117.5,117.5,60,62.5,-65,62.5,130,-140,-140,130,310,
8,Michaelle Modesto,F,SBD,Open,63,Raw,1993,Team Parana,,61.4,107.5,112.5,115,115,-60,60,65,65,115,125,-135,125,305,
4,Michaelle Modesto,F,SBD,Novice,63,Raw,1993,Team Parana,,61.4,107.5,112.5,115,115,-60,60,65,65,115,125,-135,125,305,
9,Geovanna Barros,F,SBD,Open,63,Raw,1999,Team Parana,,63,-100,100,-107.5,100,52.5,57.5,-62.5,57.5,135,147.5,-160,147.5,305,
5,Geovanna Barros,F,SBD,Novice,63,Raw,1999,Team Parana,,63,-100,100,-107.5,100,52.5,57.5,-62.5,57.5,135,147.5,-160,147.5,305,
6,Stefanny Cristiny Alves,F,SBD,Novice,63,Raw,1996,Academia Workout,,62.9,90,107.5,115,115,-40,50,-60,50,95,112.5,125,125,290,
1,Maria Eduarda Bonizone,F,SBD,Juniors,63,Raw,2004,Team Parana,,58.9,85,92.5,-100,92.5,40,42.5,-45,42.5,100,105,-110,105,240,
1,Camily Gabriele Dos Santos,F,SBD,Sub-Juniors,63,Raw,2005,Team Parana,,61.5,77.5,82.5,87.5,87.5,35,40,42.5,42.5,95,102.5,107.5,107.5,237.5,
2,Julia Fernandes Barbosa,F,SBD,Sub-Juniors,63,Raw,2006,Box Do Xerife,,59.5,75,80,85,85,45,47.5,-52.5,47.5,82.5,92.5,-100,92.5,225,
3,Mariah Lima,F,SBD,Sub-Juniors,63,Raw,2008,Team Parana,,59.7,60,70,72.5,72.5,30,35,-37.5,35,-85,85,-100,85,192.5,
1,Cícera Tavares,F,SBD,Open,69,Raw,1976,Cicera Tavares Powerlifting,,68.1,175,182.5,-191,182.5,87.5,92.5,-95,92.5,195,205,-215,205,480,
2,Bruna Bisol,F,SBD,Open,69,Raw,1997,Associação Catarinense de Levantamentos Básicos,,68.3,170,-180,-185,170,85,90,92.5,92.5,185,190,195,195,457.5,
3,Vanessa Alves,F,SBD,Open,69,Raw,1981,Federação de Powerlifting Do Estado Do Rio de Janeiro,,68.2,-130,142.5,150,150,65,72.5,-75,72.5,170,182.5,190,190,412.5,
1,Vanessa Alves,F,SBD,Masters 1,69,Raw,1981,Federação de Powerlifting Do Estado Do Rio de Janeiro,,68.2,-130,142.5,150,150,65,72.5,-75,72.5,170,182.5,190,190,412.5,
4,Erica Souza Dos Santos,F,SBD,Open,69,Raw,1993,Ct Powergym,,68.5,-130,137.5,147.5,147.5,80,85,87.5,87.5,150,162.5,-172.5,162.5,397.5,
5,Amanda Conte,F,SBD,Open,69,Raw,1998,Team Parana,,64.8,140,-147.5,-147.5,140,50,55,-60,55,140,147.5,155,155,350,
1,Amanda Conte,F,SBD,Novice,69,Raw,1998,Team Parana,,64.8,140,-147.5,-147.5,140,50,55,-60,55,140,147.5,155,155,350,
6,Jenny Antunes,F,SBD,Open,69,Raw,1995,Team Parana,,68.2,97.5,102.5,110,110,55,-60,60,60,140,-150,-160,140,310,
1,Pamela Hubner,F,SBD,Juniors,69,Raw,2001,Team Parana,,67.3,92.5,97.5,102.5,102.5,52.5,-55,55,55,125,-140,-140,125,282.5,
2,Pamela Hubner,F,SBD,Novice,69,Raw,2001,Team Parana,,67.3,92.5,97.5,102.5,102.5,52.5,-55,55,55,125,-140,-140,125,282.5,
7,Naiara Veiga,F,SBD,Open,69,Raw,1998,Team Parana,,67.1,95,102.5,-110,102.5,42.5,47.5,50,50,107.5,117.5,125,125,277.5,
2,Luana Bandeira Maia,F,SBD,Juniors,69,Raw,2001,Academia Fábrica,,66.6,90,-95,-100,90,50,55,57.5,57.5,102.5,107.5,110,110,257.5,
2,Carmen Carolina Dib,F,SBD,Masters 1,69,Raw,1976,Academia Workout,,66.7,90,95,-102.5,95,45,-50,-50,45,105,107.5,112.5,112.5,252.5,
1,Adriane Schwab,F,SBD,Masters 2,69,Raw,1970,Team Parana,,68.7,50,65,75,75,37.5,45,-50,45,90,105,115,115,235,
1,Iolanda Zolyone Marreta,F,SBD,Open,76,Raw,1977,Academia Fábrica,,75.5,170,-175,180,180,100,105,110,110,192.5,200,202.5,202.5,492.5,
1,Iolanda Zolyone Marreta,F,SBD,Masters 1,76,Raw,1977,Academia Fábrica,,75.5,170,-175,180,180,100,105,110,110,192.5,200,202.5,202.5,492.5,
2,Debora Ziviane,F,SBD,Open,76,Raw,1996,Team Parana,,72.5,140,-145,-145,140,60,62.5,65,65,177.5,-190,192.5,192.5,397.5,
1,Debora Ziviane,F,SBD,Novice,76,Raw,1996,Team Parana,,72.5,140,-145,-145,140,60,62.5,65,65,177.5,-190,192.5,192.5,397.5,
3,Maiara Suellen Cabral Da Silva,F,SBD,Open,76,Raw,1987,,,73.9,135,-145,-150,135,70,75,-77.5,75,170,177.5,-185,177.5,387.5,
2,Maiara Suellen Cabral Da Silva,F,SBD,Novice,76,Raw,1987,,,73.9,135,-145,-150,135,70,75,-77.5,75,170,177.5,-185,177.5,387.5,
4,Morgana Oliveira,F,SBD,Open,76,Raw,1993,Team Parana,,70.6,135,142.5,-150,142.5,57.5,-60,-60,57.5,-185,185,-195,185,385,
3,Morgana Oliveira,F,SBD,Novice,76,Raw,1993,Team Parana,,70.6,135,142.5,-150,142.5,57.5,-60,-60,57.5,-185,185,-195,185,385,
5,Mayara Da Rosa Sprotte,F,SBD,Open,76,Raw,1989,Associação Catarinense de Levantamentos Básicos,,70.5,142.5,152.5,-157.5,152.5,62.5,-70,-70,62.5,145,-155,155,155,370,
4,Mayara Da Rosa Sprotte,F,SBD,Novice,76,Raw,1989,Associação Catarinense de Levantamentos Básicos,,70.5,142.5,152.5,-157.5,152.5,62.5,-70,-70,62.5,145,-155,155,155,370,
6,Maria Clara Pessina,F,SBD,Open,76,Raw,1994,Et Lift,,72,127.5,137.5,142.5,142.5,62.5,-67.5,67.5,67.5,130,137.5,152.5,152.5,362.5,
1,Giovana Frajuca,F,SBD,Sub-Juniors,76,Raw,2006,Team Parana,,74.9,100,112.5,-115,112.5,47.5,52.5,-55,52.5,122.5,132.5,140,140,305,
5,Giovana Frajuca,F,SBD,Novice,76,Raw,2006,Team Parana,,74.9,100,112.5,-115,112.5,47.5,52.5,-55,52.5,122.5,132.5,140,140,305,
7,Jessica Nunes,F,SBD,Open,76,Raw,1997,Team Parana,,75,85,90,-95,90,40,-45,-45,40,105,115,130,130,260,
6,Jessica Nunes,F,SBD,Novice,76,Raw,1997,Team Parana,,75,85,90,-95,90,40,-45,-45,40,105,115,130,130,260,
1,Mariane Goncanvez,F,SBD,Juniors,76,Raw,2003,Team Parana,,70.5,75,85,90,90,35,40,42.5,42.5,97.5,112.5,120,120,252.5,
1,Sandra Teixeira,F,SBD,Open,84,Raw,1978,Academia Fábrica,,83.1,150,157.5,-160,157.5,72.5,77.5,80,80,190,197.5,200,200,437.5,
1,Sandra Teixeira,F,SBD,Masters 1,84,Raw,1978,Academia Fábrica,,83.1,150,157.5,-160,157.5,72.5,77.5,80,80,190,197.5,200,200,437.5,
2,Luana Amaral,F,SBD,Open,84,Raw,1990,Team Parana,,79,130,137.5,142.5,142.5,65,70,-75,70,145,155,-162.5,155,367.5,
3,Veronica Vaninni,F,SBD,Open,84,Raw,1995,Team Oishi,,78.1,117.5,122.5,127.5,127.5,65,70,-72.5,70,125,135,142.5,142.5,340,
1,Veronica Vaninni,F,SBD,Novice,84,Raw,1995,Team Oishi,,78.1,117.5,122.5,127.5,127.5,65,70,-72.5,70,125,135,142.5,142.5,340,
1,Hannah Victoria Goncalves,F,SBD,Juniors,84,Raw,2002,Team Saramago,,81.1,95,102.5,-107.5,102.5,45,-50,-50,45,125,132.5,-135,132.5,280,
1,Evelyn Silva E Silva,F,SBD,Open,84+,Raw,1988,Ct Powergym,,95.4,160,170,180,180,75,80,87.5,87.5,165,175,-185,175,442.5,
2,Deisiane Machado Moretti,F,SBD,Open,84+,Raw,1992,Team Oishi,,108.3,150,160,167.5,167.5,-85,85,-87.5,85,-142.5,145,155,155,407.5,
1,Deisiane Machado Moretti,F,SBD,Novice,84+,Raw,1992,Team Oishi,,108.3,150,160,167.5,167.5,-85,85,-87.5,85,-142.5,145,155,155,407.5,
3,Ana Mohr,F,SBD,Open,84+,Raw,1989,Team Parana,,91.3,130,137.5,145,145,60,-67.5,-67.5,60,130,145,160,160,365,
2,Ana Mohr,F,SBD,Novice,84+,Raw,1989,Team Parana,,91.3,130,137.5,145,145,60,-67.5,-67.5,60,130,145,160,160,365,
4,Mônica Delciana Cavalcante Miranda,F,SBD,Open,84+,Raw,1978,Federação Roraimense de Powerlifting,,88.4,125,135,-142.5,135,55,60,-62.5,60,140,150,155,155,350,
1,Mônica Delciana Cavalcante Miranda,F,SBD,Masters 1,84+,Raw,1978,Federação Roraimense de Powerlifting,,88.4,125,135,-142.5,135,55,60,-62.5,60,140,150,155,155,350,
5,Amanda Pokczyva,F,SBD,Open,84+,Raw,1998,Team Parana,,90.9,110,-120,-120,110,60,65,-70,65,170,-185,-185,170,345,
3,Amanda Pokczyva,F,SBD,Novice,84+,Raw,1998,Team Parana,,90.9,110,-120,-120,110,60,65,-70,65,170,-185,-185,170,345,
6,Priscila Silva,F,SBD,Open,84+,Raw,1986,Team Parana,,94.2,107.5,120,135,135,50,57.5,-62.5,57.5,137.5,150,-160,150,342.5,
4,Priscila Silva,F,SBD,Novice,84+,Raw,1986,Team Parana,,94.2,107.5,120,135,135,50,57.5,-62.5,57.5,137.5,150,-160,150,342.5,
7,Stefany Sohn,F,SBD,Open,84+,Raw,1992,Team Parana,,105.1,125,132.5,-140,132.5,-57.5,-57.5,57.5,57.5,-152.5,-152.5,152.5,152.5,342.5,
1,Maria Eduarda Santos,F,SBD,Sub-Juniors,84+,Raw,2006,Team Parana,,131.4,-105,105,-120,105,42.5,45,-47.5,45,-125,125,143,143,293,
1,Kaian Campos,M,SBD,Juniors,53,Raw,2004,Team Parana,,50.8,105,115,-130,115,65,-75,-75,65,130,155,165,165,345,
1,Marlan Santos Da Silva,M,SBD,Open,59,Raw,1992,Team Oishi,,59,145,160,-170.5,160,85,90,-92.5,90,185,200,-225.5,200,450,
1,Marlan Santos Da Silva,M,SBD,Novice,59,Raw,1992,Team Oishi,,59,145,160,-170.5,160,85,90,-92.5,90,185,200,-225.5,200,450,
1,Alex Bruno Silva Da Costa,M,SBD,Juniors,59,Raw,2003,Heavy Duty,,57.8,135,-145,-145,135,-85,85,92.5,92.5,175,-180,-180,175,402.5,
2,João Guilherme Castellain,M,SBD,Juniors,59,Raw,2004,Associação Catarinense de Levantamentos Básicos,,57.8,130,135,137.5,137.5,80,85,87.5,87.5,150,157.5,-162.5,157.5,382.5,
3,Vinicius Arduino,M,SBD,Juniors,59,Raw,2000,Team Parana,,57.5,95,-102.5,-110,95,62.5,-70,-70,62.5,115,130,145,145,302.5,
2,Vinicius Arduino,M,SBD,Novice,59,Raw,2000,Team Parana,,57.5,95,-102.5,-110,95,62.5,-70,-70,62.5,115,130,145,145,302.5,
1,Eudson Lima,M,SBD,Open,66,Raw,1985,Team Parana,,65.7,195,205,212.5,212.5,120,125,-127.5,125,215,230,235,235,572.5,
1,Lucio Vitor de Lima,M,SBD,Juniors,66,Raw,2004,Team Parana,,64,175,185,195,195,90,97.5,102.5,102.5,245,-260,-260,245,542.5,
2,Lucio Vitor de Lima,M,SBD,Open,66,Raw,2004,Team Parana,,64,175,185,195,195,90,97.5,102.5,102.5,245,-260,-260,245,542.5,
3,Jonathas de Jesus Pereira Neto,M,SBD,Open,66,Raw,1991,Team Saramago,,64.9,165,175,-180,175,92.5,97.5,-100,97.5,220,-227.5,227.5,227.5,500,
1,Jonathas de Jesus Pereira Neto,M,SBD,Novice,66,Raw,1991,Team Saramago,,64.9,165,175,-180,175,92.5,97.5,-100,97.5,220,-227.5,227.5,227.5,500,
1,Sérgio Daniel de Moura E Moura,M,SBD,Sub-Juniors,66,Raw,2005,Team Oishi,,62.5,145,-157.5,157.5,157.5,90,97.5,100,100,180,190,192.5,192.5,450,
2,Sérgio Daniel de Moura E Moura,M,SBD,Novice,66,Raw,2005,Team Oishi,,62.5,145,-157.5,157.5,157.5,90,97.5,100,100,180,190,192.5,192.5,450,
2,Marcelo Yamawaka,M,SBD,Juniors,66,Raw,2003,Team Saramago,,64.2,140,147.5,-152.5,147.5,80,-87.5,-87.5,80,172.5,180,-185,180,407.5,
3,Joao Marcos Assunção Da Silva,M,SBD,Novice,66,Raw,1999,Heavy Duty,,64.9,-130,130,142.5,142.5,72.5,75,77.5,77.5,185,-195,-195,185,405,
2,Guilherme Oliveira,M,SBD,Sub-Juniors,66,Raw,2008,Team Parana,,63.2,115,125,-130,125,80,-82.5,-82.5,80,-125,125,-127.5,125,330,
1,Andre de Souza Garcia,M,SBD,Open,74,Raw,1982,Cicera Tavares Powerlifting,,74,230,235,,235,157.5,162.5,165,165,252.5,265,270,270,670,
1,Andre de Souza Garcia,M,SBD,Masters 1,74,Raw,1982,Cicera Tavares Powerlifting,,74,230,235,,235,157.5,162.5,165,165,252.5,265,270,270,670,
2,Johnny Bittencourt,M,SBD,Open,74,Raw,1996,,,73,230,240,-248,240,130,135,140,140,245,257.5,-262.5,257.5,637.5,
3,Gustavo Firmino del Rio,M,SBD,Open,74,Raw,1998,Federação de Powerlifting Do Estado Do Rio de Janeiro,,73.2,205,212.5,-220,212.5,-127.5,127.5,132.5,132.5,235,242.5,-255,242.5,587.5,
1,Kaue Recio Carpim Sala,M,SBD,Juniors,74,Raw,2004,The Lifters,,73.1,185,195,205,205,-120,120,-125,120,-235,-235,235,235,560,
1,Jonatas D. Cardoso,M,SBD,Novice,74,Raw,1996,Team Saramago,,71.8,190,202.5,-210,202.5,115,-122.5,-122.5,115,215,227.5,232.5,232.5,550,
2,Vinicio Costa Santos,M,SBD,Novice,74,Raw,1996,Academia Workout,,72.7,170,180,-187.5,180,115,122.5,130,130,205,217.5,222.5,222.5,532.5,
2,Matheus Dos Santos,M,SBD,Juniors,74,Raw,2001,Team Parana,,73.6,195,202.5,-207.5,202.5,105,-110,-110,105,225,-235,-253,225,532.5,
3,Matheus Dos Santos,M,SBD,Novice,74,Raw,2001,Team Parana,,73.6,195,202.5,-207.5,202.5,105,-110,-110,105,225,-235,-253,225,532.5,
4,Fernando Victor Rodrigues Martins,M,SBD,Open,74,Raw,1997,Team Saramago,,71.1,170,180,182.5,182.5,-110,-115,115,115,210,220,-235,220,517.5,
4,Fernando Victor Rodrigues Martins,M,SBD,Novice,74,Raw,1997,Team Saramago,,71.1,170,180,182.5,182.5,-110,-115,115,115,210,220,-235,220,517.5,
5,Michel Angelo Silva Santos,M,SBD,Novice,74,Raw,1990,Federação de Powerlifting Do Estado Do Rio de Janeiro,,72.9,160,-170,175,175,110,122.5,-127.5,122.5,215,-225,-225,215,512.5,
5,Caio Melo de Lima,M,SBD,Open,74,Raw,1998,Federação Pernambucana de Powerlifting,,72.8,177.5,185,195,195,95,105,-107.5,105,190,205,-207.5,205,505,
6,Caio Melo de Lima,M,SBD,Novice,74,Raw,1998,Federação Pernambucana de Powerlifting,,72.8,177.5,185,195,195,95,105,-107.5,105,190,205,-207.5,205,505,
3,Rafael Ribeiro,M,SBD,Juniors,74,Raw,2004,Marcelo Aló,,73.2,150,160,175,175,110,-120,120,120,175,195,200,200,495,
7,Philipe Jason Goncalvez Tomaz,M,SBD,Novice,74,Raw,1988,Ct Powergym,,74,165,175,-185,175,105,112.5,-120,112.5,182.5,195,200,200,487.5,
6,Adrian Dos Santos,M,SBD,Open,74,Raw,1988,Team Parana,,73.8,180,190,-197.5,190,80,-85,-85,80,-205,215,-230,215,485,
8,Adrian Dos Santos,M,SBD,Novice,74,Raw,1988,Team Parana,,73.8,180,190,-197.5,190,80,-85,-85,80,-205,215,-230,215,485,
7,Erasmo Alves Junior,M,SBD,Open,74,Raw,1995,Marcelo Aló,,72.3,157.5,170,-177.5,170,95,102.5,-110,102.5,190,207.5,-225,207.5,480,
9,Sollon Araujo,M,SBD,Novice,74,Raw,1990,Federação de Powerlifting Do Estado Do Rio de Janeiro,,73.5,155,-170,175,175,90,102.5,-107.5,102.5,180,200,-210,200,477.5,
4,Matheus Henrique de Morais,M,SBD,Juniors,74,Raw,2002,Team Parana,,67.5,150,165,-172.5,165,90,100,-107.5,100,185,200,-230,200,465,
10,Matheus Henrique de Morais,M,SBD,Novice,74,Raw,2002,Team Parana,,67.5,150,165,-172.5,165,90,100,-107.5,100,185,200,-230,200,465,
1,Marcos Padovani,M,SBD,Masters 2,74,Raw,1973,Marcelo Aló,,71.6,160,170,175,175,-100,100,-105,100,175,190,-200.5,190,465,
1,Fernando Luiz Almeida Cunha,M,SBD,Sub-Juniors,74,Raw,2007,Cicera Tavares Powerlifting,,70.5,150,160,-165,160,100,105,-108.5,105,170,182.5,-195,182.5,447.5,
11,Matheus Adler,M,SBD,Novice,74,Raw,1997,Team Parana,,67.7,115,125,130,130,90,100,-102.5,100,190,205,-207.5,205,435,
5,Luiz Cordeiro,M,SBD,Juniors,74,Raw,2003,Team Parana,,70.6,-120,120,135,135,70,80,-85,80,190,-215,220,220,435,
2,Adilson Ribeiro,M,SBD,Masters 2,74,Raw,1968,Cicera Tavares Powerlifting,,73.1,120,135,-145,135,90,97.5,-102.5,97.5,140,150,-160,150,382.5,
8,Rivando de Sousa,M,SBD,Open,74,Raw,1999,Team Saramago,,71.4,122.5,130,135,135,82.5,-87.5,-87.5,82.5,152.5,162.5,-165,162.5,380,
12,Rivando de Sousa,M,SBD,Novice,74,Raw,1999,Team Saramago,,71.4,122.5,130,135,135,82.5,-87.5,-87.5,82.5,152.5,162.5,-165,162.5,380,
13,Victor Begha,M,SBD,Novice,74,Raw,1998,Team Parana,,68.8,90,100,110,110,-77.5,77.5,-85,77.5,-135,135,-142.5,135,322.5,
1,Victor Hugo Teixeira Santana,M,SBD,Open,83,Raw,1999,Associação Mineira de Levantamentos Básicos,,81.1,220,-232.5,240,240,130,135,137.5,137.5,265,275,277.5,277.5,655,
2,Eduardo Saramago,M,SBD,Open,83,Raw,1992,Team Saramago,,82.2,227.5,237.5,240,240,147.5,-152.5,-152.5,147.5,267.5,-280,-280,267.5,655,
3,Pedro Lins,M,SBD,Open,83,Raw,1993,Marcelo Aló,,82.4,230,240,245,245,135,140,142.5,142.5,240,250,-270,250,637.5,
4,Guilherme Menezes,M,SBD,Open,83,Raw,1995,Federação de Powerlifting Do Estado Do Rio de Janeiro,,81.6,215,225,-232.5,225,140,-147.5,147.5,147.5,240,255,-272.5,255,627.5,
1,Eduardo de Assis,M,SBD,Masters 1,83,Raw,1980,The Lifters,,82.8,205,215,223.5,223.5,122.5,130,-135,130,235,247.5,258,258,611.5,
5,Robson Andre de Lima Leite,M,SBD,Open,83,Raw,1980,Team Parana,,82.3,190,197.5,205,205,127.5,-130,-130,127.5,240,-255,-255,240,572.5,
1,Igor Correa,M,SBD,Novice,83,Raw,1999,Team Parana,,82.4,217.5,230,-235,230,110,115,117.5,117.5,210,215,222.5,222.5,570,
1,Remi de Carvalho,M,SBD,Masters 2,83,Raw,1969,Medved,,82.9,187.5,195,-200,195,125,127.5,130,130,222.5,232.5,243.5,243.5,568.5,
2,Vitor Santos Duarte,M,SBD,Novice,83,Raw,1996,Associação Mineira de Levantamentos Básicos,,82.5,200,207.5,212.5,212.5,-120,120,-122.5,120,220,-230,-230,220,552.5,
3,Alexandre Meyer,M,SBD,Novice,83,Raw,1987,Team Parana,,81.6,195,-207.5,-212.5,195,100,107.5,112.5,112.5,210,222.5,237.5,237.5,545,
2,Carlos Tempel,M,SBD,Masters 1,83,Raw,1979,Team Parana,,78.4,180,190,-195,190,100,-107.5,-107.5,100,230,240,-250,240,530,
4,Vitor Moura,M,SBD,Novice,83,Raw,1994,,,83,195,-205,-205,195,122.5,-125,-125,122.5,-200,210,-215,210,527.5,
1,Gabriel Da Silva Leite,M,SBD,Juniors,83,Raw,2004,Academia Workout,,79,170,180,190,190,112.5,-115,-115,112.5,200,202.5,220,220,522.5,
2,Lucas Oliveira Do Couto,M,SBD,Juniors,83,Raw,2002,Ct Powergym,,82.7,160,172.5,-180,172.5,100,110,-117.5,110,195,210,215,215,497.5,
3,David Menezes,M,SBD,Juniors,83,Raw,2000,Federação de Powerlifting Do Estado Do Rio de Janeiro,,81.8,165,175,-190,175,115,-120,120,120,190,-212.5,-212.5,190,485,
5,Brendo Oliveira D'Antonio,M,SBD,Novice,83,Raw,1995,Team Oishi,,75.3,150,-162.5,170,170,85,95,105,105,180,200,-215,200,475,
6,Jose Yuri,M,SBD,Novice,83,Raw,1993,Team Parana,,82.3,145,155,165,165,100,105,-107.5,105,177.5,190,-200,190,460,
4,Gabriel Escalante,M,SBD,Juniors,83,Raw,2000,Team Parana,,82,155,-165,-172.5,155,92.5,95,97.5,97.5,205,-217.5,-217.5,205,457.5,
7,Gabriel Escalante,M,SBD,Novice,83,Raw,2000,Team Parana,,82,155,-165,-172.5,155,92.5,95,97.5,97.5,205,-217.5,-217.5,205,457.5,
1,Renato Vidigal Da Cruz Brito,M,SBD,Sub-Juniors,83,Raw,2005,Team Oishi,,76.6,140,147.5,152.5,152.5,80,87.5,-90,87.5,170,185,200,200,440,
8,Renato Vidigal Da Cruz Brito,M,SBD,Novice,83,Raw,2005,Team Oishi,,76.6,140,147.5,152.5,152.5,80,87.5,-90,87.5,170,185,200,200,440,
9,Pedro Capelari,M,SBD,Novice,83,Raw,1996,Marcelo Aló,,75.5,-140,140,155,155,85,90,-95,90,170,177.5,-182.5,177.5,422.5,
3,Jamir Pieczarka,M,SBD,Masters 1,83,Raw,1974,Team Parana,,82,85,105,115,115,85,-92.5,95,95,150,160,-182.5,160,370,
2,Vitor Manoel Salvino Souto,M,SBD,Sub-Juniors,83,Raw,2008,Team Saramago,,81.6,-112.5,112.5,120,120,47.5,-55,65,65,145,157.5,162.5,162.5,347.5,
1,David Coimbra,M,SBD,Open,93,Raw,1983,Marcelo Aló,,92.6,265,280,292.5,292.5,155,162.5,167.5,167.5,292.5,312.5,320,320,780,
1,David Coimbra,M,SBD,Masters 1,93,Raw,1983,Marcelo Aló,,92.6,265,280,292.5,292.5,155,162.5,167.5,167.5,292.5,312.5,320,320,780,
2,Denis Luan Da Silva Gibson,M,SBD,Open,93,Raw,1991,,,92.2,245,255,262.5,262.5,160,-165,-165,160,245,255,265,265,687.5,
1,Denis Luan Da Silva Gibson,M,SBD,Novice,93,Raw,1991,,,92.2,245,255,262.5,262.5,160,-165,-165,160,245,255,265,265,687.5,
3,Mauricio Fujisawa,M,SBD,Open,93,Raw,1987,Marcelo Aló,,90,220,230,240,240,135,142.5,147.5,147.5,275,290,-300,290,677.5,
4,Vitor Matheus,M,SBD,Open,93,Raw,1999,Team Parana,,90.3,230,242.5,255,255,145,-155,-155,145,250,265,-280,265,665,
5,Vitor Flaumenhaft,M,SBD,Open,93,Raw,1993,Federação de Powerlifting Do Estado Do Rio de Janeiro,,92.5,230,242.5,-247.5,242.5,147.5,152.5,157.5,157.5,255,-270,-282.5,255,655,
6,Alessandro Ribeiro,M,SBD,Open,93,Raw,1993,Team Parana,,91.7,235,245,255,255,145,150,-152.5,150,245,-260,-260,245,650,
7,Renan Willian Faveri,M,SBD,Open,93,Raw,1993,Kerberos,,90.1,225,230,-240,230,132.5,-140,-140,132.5,260,280,-295,280,642.5,
2,Renan Willian Faveri,M,SBD,Novice,93,Raw,1993,Kerberos,,90.1,225,230,-240,230,132.5,-140,-140,132.5,260,280,-295,280,642.5,
8,João Pedro Gomes,M,SBD,Open,93,Raw,1998,Federação de Powerlifting Do Estado Do Rio de Janeiro,,92.8,225,235,245,245,157.5,-162.5,162.5,162.5,230,-252.5,-252.5,230,637.5,
1,Davi Miranda,M,SBD,Juniors,93,Raw,2000,Team Parana,,88.4,205,220,230,230,125,130,-132.5,130,235,242.5,-255,242.5,602.5,
3,Pedro Chaves,M,SBD,Novice,93,Raw,1997,Team Parana,,91.6,205,210,-215,210,135,140,-142.5,140,215,225,240,240,590,
2,Joao Pedro Schueler,M,SBD,Juniors,93,Raw,2002,Team Oishi,,91.8,227.5,-235,235,235,115,120,-122.5,120,225,235,-250,235,590,
9,Vinicius Porto,M,SBD,Open,93,Raw,1990,Marcelo Aló,,92.5,197.5,-207.5,-207.5,197.5,142.5,145,-147.5,145,227.5,237.5,-245,237.5,580,
10,Rudi Vieira,M,SBD,Open,93,Raw,1983,Associação Catarinense de Levantamentos Básicos,,93,205,215,220,220,150,-157.5,-157.5,150,210,-225,-225,210,580,
2,Rudi Vieira,M,SBD,Masters 1,93,Raw,1983,Associação Catarinense de Levantamentos Básicos,,93,205,215,220,220,150,-157.5,-157.5,150,210,-225,-225,210,580,
3,Lucas Brun Pereira,M,SBD,Juniors,93,Raw,2000,Iron Dogs,,89.5,180,190,200,200,107.5,112.5,-117.5,112.5,240,250,-277.5,250,562.5,
1,Turnambey Cláudio Delvos,M,SBD,Masters 2,93,Raw,1973,Associação Catarinense de Levantamentos Básicos,,89.7,190,200,212.5,212.5,110,115,-117.5,115,205,215,233,233,560.5,
4,Victor Ferreira Alonso,M,SBD,Novice,93,Raw,1992,Ct Powergym,,89.5,185,195,200,200,110,115,-120,115,215,230,240,240,555,
5,Fabio Maglia Rodrigues,M,SBD,Novice,93,Raw,1996,Academia Workout,,90.6,185,-197.5,-197.5,185,125,132.5,-135,132.5,215,230,-240,230,547.5,
11,Amaury Ramalho,M,SBD,Open,93,Raw,1994,Team Parana,,92.2,155,165,170,170,135,-140,-140,135,210,220,-230,220,525,
6,Amaury Ramalho,M,SBD,Novice,93,Raw,1994,Team Parana,,92.2,155,165,170,170,135,-140,-140,135,210,220,-230,220,525,
4,Samuel Victor Botasso de Almeida,M,SBD,Juniors,93,Raw,2002,,,91.5,170,-180,-180,170,102.5,105,-107.5,105,240,247.5,-260,247.5,522.5,
7,Samuel Victor Botasso de Almeida,M,SBD,Novice,93,Raw,2002,,,91.5,170,-180,-180,170,102.5,105,-107.5,105,240,247.5,-260,247.5,522.5,
12,Marcelo Oliveira,M,SBD,Open,93,Raw,1984,Team Parana,,91,175,185,192.5,192.5,100,107.5,-112.5,107.5,207.5,217.5,-225,217.5,517.5,
8,Marcelo Oliveira,M,SBD,Novice,93,Raw,1984,Team Parana,,91,175,185,192.5,192.5,100,107.5,-112.5,107.5,207.5,217.5,-225,217.5,517.5,
1,Caua Mancuso,M,SBD,Sub-Juniors,93,Raw,2005,Federação de Powerlifting Do Estado Do Rio de Janeiro,,91.2,170,-180.5,180.5,180.5,105,115,-122.5,115,170,-190,-205,170,465.5,
9,Pedro Vidal,M,SBD,Novice,93,Raw,1991,Team Parana,,93,145,157.5,-170,157.5,85,92.5,-100,92.5,190,205,210,210,460,
13,Diego Altran Gonzales,M,SBD,Open,93,Raw,1982,Marcelo Aló,,87.5,147.5,155,-160,155,100,105,-110,105,180,190,-200,190,450,
14,Felipe Camargo,M,SBD,Open,93,Raw,1999,Team Parana,,92,130,140,-155,140,75,82.5,-85,82.5,160,170,-180,170,392.5,
1,Reges Abadio Ferreira Martins,M,SBD,Especial,93,Raw,1995,Team Saramago,,85.5,95,125,140,140,25,-35,35,35,160,190,210,210,385,
1,Rodrigo Jamar Santanna,M,SBD,Open,105,Raw,1994,Federação de Powerlifting Do Estado Do Rio de Janeiro,,102.3,240,265,272.5,272.5,167.5,175,180,180,260,275,-280,275,727.5,
1,Rodrigo Jamar Santanna,M,SBD,Novice,105,Raw,1994,Federação de Powerlifting Do Estado Do Rio de Janeiro,,102.3,240,265,272.5,272.5,167.5,175,180,180,260,275,-280,275,727.5,
2,Matheus Wallace de Oliveira,M,SBD,Open,105,Raw,1995,Team Oishi,,103.4,250,265,275,275,155,162.5,-170,162.5,255,267.5,-292.5,267.5,705,
3,Gabriel Da Silva Martins,M,SBD,Open,105,Raw,1990,Marcelo Aló,,103.2,220,230,-240,230,170,175,180,180,260,270,280,280,690,
4,Cristiano Henrique de Fatima Santos,M,SBD,Open,105,Raw,1988,Associação Mineira de Levantamentos Básicos,,102.5,-230,240,-250,240,170,175,180,180,250,260,-275,260,680,
2,Cristiano Henrique de Fatima Santos,M,SBD,Novice,105,Raw,1988,Associação Mineira de Levantamentos Básicos,,102.5,-230,240,-250,240,170,175,180,180,250,260,-275,260,680,
5,Paulo Netto,M,SBD,Open,105,Raw,1994,Team Parana,,103.9,220,235,247.5,247.5,182.5,-187.5,-187.5,182.5,230,245,-262.5,245,675,
6,Cesar Hideki Kikuti,M,SBD,Open,105,Raw,1984,Marcelo Aló,,98.7,245,257.5,262.5,262.5,137.5,142.5,145,145,-250,250,262.5,262.5,670,
3,Cesar Hideki Kikuti,M,SBD,Novice,105,Raw,1984,Marcelo Aló,,98.7,245,257.5,262.5,262.5,137.5,142.5,145,145,-250,250,262.5,262.5,670,
4,Gabriel Da Rocha Ferreira,M,SBD,Novice,105,Raw,1997,Associação Mineira de Levantamentos Básicos,,103.3,230,245,257.5,257.5,-135,142.5,-147.5,142.5,230,252.5,270,270,670,
7,Antonio Igor,M,SBD,Open,105,Raw,1985,Cicera Tavares Powerlifting,,104.4,230,240,247.5,247.5,145,152.5,-155,152.5,-270,270,-302.5,270,670,
8,Douglas Antonio Oliveira,M,SBD,Open,105,Raw,1989,Academia Workout,,103.1,227.5,237.5,245,245,145,152.5,155,155,235,245,260,260,660,
9,Ivan Bittencourt,M,SBD,Open,105,Raw,1999,Team Parana,,104,230,237.5,242.5,242.5,135,142.5,147.5,147.5,235,255,-282.5,255,645,
5,Ivan Bittencourt,M,SBD,Novice,105,Raw,1999,Team Parana,,104,230,237.5,242.5,242.5,135,142.5,147.5,147.5,235,255,-282.5,255,645,
10,Delmas Ferreira Junior,M,SBD,Open,105,Raw,1997,Associação Baiana de Powerlifting,,101.2,-205,205,215,215,120,127.5,-135,127.5,275,-290,295,295,637.5,
11,Ailson Ribeiro Soares,M,SBD,Open,105,Raw,1989,Associação Mineira de Levantamentos Básicos,,102.7,230,232.5,245,245,140,150,-160,150,240,-245,-245,240,635,
6,Ailson Ribeiro Soares,M,SBD,Novice,105,Raw,1989,Associação Mineira de Levantamentos Básicos,,102.7,230,232.5,245,245,140,150,-160,150,240,-245,-245,240,635,
1,Jose Gilberto Cassiano Barbosa Da Silva,M,SBD,Juniors,105,Raw,2000,Ct Powergym,,101,215,227.5,-240,227.5,142.5,-150,152.5,152.5,220,235,250,250,630,
2,Stvan Oliveira,M,SBD,Juniors,105,Raw,2004,Team Parana,,99,210,-220,-220,210,150,157.5,-165,157.5,250,257.5,-262.5,257.5,625,
3,Rogerio Moreira,M,SBD,Juniors,105,Raw,2000,Sesla - Indaiatuba,,104.5,200,210,220,220,130,145,-150,145,230,250,260,260,625,
1,Marcelo Moreira,M,SBD,Masters 2,105,Raw,1972,Sesla - Indaiatuba,,103.6,180,210,230,230,120,130,140,140,200,230,240,240,610,
4,Gabriel Gusmao Santino,M,SBD,Juniors,105,Raw,2002,Federação de Powerlifting Do Estado Do Rio de Janeiro,,101.9,215,227.5,-232.5,227.5,120,125,130,130,250,-262.5,-275,250,607.5,
12,Cléverson Luís da Silva,M,SBD,Open,105,Raw,1997,Sesla - Indaiatuba,,101.8,195,-207.5,-207.5,195,135,142.5,-147.5,142.5,215,235,250,250,587.5,
1,Frederico Augustus,M,SBD,Masters 1,105,Raw,1979,Team Parana,,102.6,192.5,202.5,-207.5,202.5,125,130,-135,130,237.5,245,247.5,247.5,580,
2,Edson Kamogawa,M,SBD,Masters 1,105,Raw,1976,Marcelo Aló,,99.5,207.5,215,-220,215,147.5,152.5,-155,152.5,202.5,-207.5,210,210,577.5,
7,Leandro Mario Dal Ponte,M,SBD,Novice,105,Raw,1995,Associação Catarinense de Levantamentos Básicos,,102.4,185,200,225,225,120,127.5,-135,127.5,220,-240,-240,220,572.5,
5,Gustavo Zolyone,M,SBD,Juniors,105,Raw,2004,Academia Fábrica,,100.4,170,180,187.5,187.5,140,145,-150,145,205,215,225,225,557.5,
13,Adilson Marestoni Junior,M,SBD,Open,105,Raw,1990,Kerberos,,103.2,210,-220,-220,210,110,-120,-130,110,235,-242.5,-242.5,235,555,
8,Adilson Marestoni Junior,M,SBD,Novice,105,Raw,1990,Kerberos,,103.2,210,-220,-220,210,110,-120,-130,110,235,-242.5,-242.5,235,555,
6,Kayque Nogueira Vieira,M,SBD,Juniors,105,Raw,2001,Cicera Tavares Powerlifting,,98.7,200,207.5,-215,207.5,107.5,112.5,-117.5,112.5,220,-250,-250,220,540,
14,Mateus Goulart Marcos,M,SBD,Open,105,Raw,1994,Associação Catarinense de Levantamentos Básicos,,102.3,165,175,185,185,112.5,117.5,125,125,215,225,-235,225,535,
9,Edenildo Correia,M,SBD,Novice,105,Raw,1983,Federação de Powerlifting Do Estado Do Rio de Janeiro,,99.7,170,182.5,187.5,187.5,110,122.5,-130,122.5,220,-235,-240,220,530,
7,Italo Dos Santos,M,SBD,Juniors,105,Raw,2004,Team Parana,,101.6,175,-187.5,187.5,187.5,95,-105,-105,95,-225,225,245,245,527.5,
15,Marcos Gandra,M,SBD,Open,105,Raw,1998,Team Parana,,102.1,170,185,-192.5,185,100,110,115,115,215,225,-235,225,525,
10,Marcos Gandra,M,SBD,Novice,105,Raw,1998,Team Parana,,102.1,170,185,-192.5,185,100,110,115,115,215,225,-235,225,525,
16,Gabriel de Jong,M,SBD,Open,105,Raw,1992,Federação de Powerlifting Do Estado Do Rio de Janeiro,,102.7,140,145,150,150,-120,-120,120,120,195,205,210,210,480,
11,Gabriel de Jong,M,SBD,Novice,105,Raw,1992,Federação de Powerlifting Do Estado Do Rio de Janeiro,,102.7,140,145,150,150,-120,-120,120,120,195,205,210,210,480,
17,João Querlon,M,SBD,Open,105,Raw,1982,Cicera Tavares Powerlifting,,97.7,192.5,212.5,-220,212.5,95,105,115,115,90,110,115,115,442.5,
3,João Querlon,M,SBD,Masters 1,105,Raw,1982,Cicera Tavares Powerlifting,,97.7,192.5,212.5,-220,212.5,95,105,115,115,90,110,115,115,442.5,
1,Eduardo Ribeiro de Alvarenga Pinheiro,M,SBD,Sub-Juniors,105,Raw,2008,Federação Roraimense de Powerlifting,,101,127.5,137.5,142.5,142.5,45,52.5,55,55,140,150,160,160,357.5,
1,Matheus Garcia Costa,M,SBD,Open,120,Raw,1991,Marcelo Aló,,118.1,295,307.5,317,317,165,172.5,177.5,177.5,335,350,362.5,362.5,857,
2,Rogerio Almeida de Sousa,M,SBD,Open,120,Raw,1995,Ct Powergym,,116.8,290,300,310,310,192.5,202.5,210,210,295,-310,310,310,830,
1,Davi Cardoso,M,SBD,Juniors,120,Raw,2002,Team Parana,,119.1,287.5,305,316.5,316.5,157.5,165,167.5,167.5,300,312.5,-347.5,312.5,796.5,
3,Davi Cardoso,M,SBD,Open,120,Raw,2002,Team Parana,,119.1,287.5,305,316.5,316.5,157.5,165,167.5,167.5,300,312.5,-347.5,312.5,796.5,
4,Romulo Luz,M,SBD,Open,120,Raw,1985,Team Parana,,118.8,240,255,257.5,257.5,175,182.5,-190,182.5,240,257.5,-270,257.5,697.5,
5,Marco Davi Filho,M,SBD,Open,120,Raw,1996,Federação de Powerlifting Do Estado Do Rio de Janeiro,,112.7,245,262.5,270,270,150,160,165,165,250,-265,-265,250,685,
1,Marco Davi Filho,M,SBD,Novice,120,Raw,1996,Federação de Powerlifting Do Estado Do Rio de Janeiro,,112.7,245,262.5,270,270,150,160,165,165,250,-265,-265,250,685,
6,Henrique Peres,M,SBD,Open,120,Raw,1992,Team Parana,,117.1,245,255,265,265,150,157.5,162.5,162.5,250,-267.5,-267.5,250,677.5,
2,Henrique Peres,M,SBD,Novice,120,Raw,1992,Team Parana,,117.1,245,255,265,265,150,157.5,162.5,162.5,250,-267.5,-267.5,250,677.5,
7,Francisco Antonio Ramos,M,SBD,Open,120,Raw,1969,Academia Workout,,119.6,220,237.5,255,255,170,182.5,-202.5,182.5,220,240,-257.5,240,677.5,
1,Francisco Antonio Ramos,M,SBD,Masters 2,120,Raw,1969,Academia Workout,,119.6,220,237.5,255,255,170,182.5,-202.5,182.5,220,240,-257.5,240,677.5,
8,Luan de Oliveira Kohaski,M,SBD,Open,120,Raw,1992,Hallier Baltar,,115.2,242.5,252.5,-262.5,252.5,137.5,145,-150,145,252.5,265,272.5,272.5,670,
3,Luan de Oliveira Kohaski,M,SBD,Novice,120,Raw,1992,Hallier Baltar,,115.2,242.5,252.5,-262.5,252.5,137.5,145,-150,145,252.5,265,272.5,272.5,670,
9,Sidnei Dos Santos Viana,M,SBD,Open,120,Raw,1988,Et Lift,,110.7,205,215,230,230,145,152.5,160,160,230,250,272.5,272.5,662.5,
4,Sidnei Dos Santos Viana,M,SBD,Novice,120,Raw,1988,Et Lift,,110.7,205,215,230,230,145,152.5,160,160,230,250,272.5,272.5,662.5,
5,Marcos Jaskow,M,SBD,Novice,120,Raw,1990,Team Parana,,115.6,-185,185,-215,185,132.5,137.5,145,145,255,270,-275,270,600,
10,Guilherme Braga Barbosa,M,SBD,Open,120,Raw,1990,Team Saramago,,115.6,195,205,217.5,217.5,90,92.5,120,120,210,222.5,235,235,572.5,
6,Guilherme Braga Barbosa,M,SBD,Novice,120,Raw,1990,Team Saramago,,115.6,195,205,217.5,217.5,90,92.5,120,120,210,222.5,235,235,572.5,
1,Paulo Ramon de Almeida,M,SBD,Masters 3,120,Raw,1963,The Lifters,,117.8,173,180,190,190,120,-125,125,125,170,185,200,200,515,
1,Thiago Roberto Santos,M,SBD,Masters 1,120,Raw,1982,Hallier Baltar,,114.7,120,130,140,140,110,125,130,130,-170,170,-190,170,440,
1,Flávio Araújo,M,SBD,Open,120+,Raw,1999,Team Saramago,,128.2,267.5,277.5,282.5,282.5,155,165,170,170,270,280,287.5,287.5,740,
1,Mauro Miyazaki,M,SBD,Novice,120+,Raw,1991,Marcelo Aló,,153,245,260,270,270,145,152.5,-157.5,152.5,265,-275,-277.5,265,687.5,
2,Pedro Gomes Maddalena,M,SBD,Open,120+,Raw,1994,Federação de Powerlifting Do Estado Do Rio de Janeiro,,134.6,-240,240,260,260,145,155,160,160,245,255,265,265,685,
2,Pedro Gomes Maddalena,M,SBD,Novice,120+,Raw,1994,Federação de Powerlifting Do Estado Do Rio de Janeiro,,134.6,-240,240,260,260,145,155,160,160,245,255,265,265,685,
1,Gabriel Cassaniga,M,SBD,Juniors,120+,Raw,2004,Team Oishi,,121.5,235,245,250,250,140,-145,-145,140,240,255,-262.5,255,645,
1,Mauricio Carvalho de Oliveira,M,SBD,Masters 1,120+,Raw,1978,Hallier Baltar,,143.8,200,212.5,215,215,135,145,152.5,152.5,230,240,247.5,247.5,615,
3,Mauricio Carvalho de Oliveira,M,SBD,Novice,120+,Raw,1978,Hallier Baltar,,143.8,200,212.5,215,215,135,145,152.5,152.5,230,240,247.5,247.5,615,
3,Raul Manzione,M,SBD,Open,120+,Raw,1991,Team Oishi,,129.3,207.5,217.5,225,225,110,-115,-115,110,240,-255,260,260,595,
4,Raul Manzione,M,SBD,Novice,120+,Raw,1991,Team Oishi,,129.3,207.5,217.5,225,225,110,-115,-115,110,240,-255,260,260,595,
4,Emanuel Toledo de Barros,M,SBD,Open,120+,Raw,1980,Team Saramago,,141.5,-200,205,-210,205,117.5,122.5,-127.5,122.5,255,265,-272.5,265,592.5,
2,Emanuel Toledo de Barros,M,SBD,Masters 1,120+,Raw,1980,Team Saramago,,141.5,-200,205,-210,205,117.5,122.5,-127.5,122.5,255,265,-272.5,265,592.5,
3,Fernando Sampaio,M,SBD,Masters 1,120+,Raw,1983,Hatadani Powerlifting,,130.7,190,-202.5,-205,190,127.5,135,140,140,220,235,260,260,590,
5,Renan Ribeiro,M,SBD,Open,120+,Raw,1993,Team Parana,,131.4,190,205,215,215,125,-132.5,-132.5,125,235,247.5,-260,247.5,587.5,
5,Renan Ribeiro,M,SBD,Novice,120+,Raw,1993,Team Parana,,131.4,190,205,215,215,125,-132.5,-132.5,125,235,247.5,-260,247.5,587.5,
2,Joao Arthur Weber Da Rosa,M,SBD,Juniors,120+,Raw,2004,Team Oishi,,124.8,190,205,210,210,115,120,125,125,200,212.5,-220,212.5,547.5,
6,Joao Arthur Weber Da Rosa,M,SBD,Novice,120+,Raw,2004,Team Oishi,,124.8,190,205,210,210,115,120,125,125,200,212.5,-220,212.5,547.5,
3,Joao Camargo,M,SBD,Juniors,120+,Raw,2004,Team Parana,,129.2,175,185,205,205,90,92.5,-105,92.5,200,-210,-210,200,497.5,
1,Andre Maio,M,SBD,Sub-Juniors,120+,Raw,2007,Team Parana,,135.5,115,125,135,135,50,57.5,62.5,62.5,175,190,-200,190,387.5,
